<svg
 xmlns="http://www.w3.org/2000/svg"
 xmlns:xlink="http://www.w3.org/1999/xlink"
 width="23px" height="20px">
<path fill-rule="evenodd"  fill="rgb(255, 255, 255)"
 d="M20.000,15.000 L17.000,15.000 L17.000,20.000 L12.000,15.000 L3.000,15.000 C1.343,15.000 0.000,13.657 0.000,12.000 L0.000,3.000 C0.000,1.343 1.343,0.000 3.000,0.000 L20.000,0.000 C21.657,0.000 23.000,1.343 23.000,3.000 L23.000,12.000 C23.000,13.657 21.657,15.000 20.000,15.000 Z"/>
</svg>
